b 0 0 28 41 115 116 144 312 326
b 1 0 28 41 115 116 140 144 312 326
b 2 0 14 28 41 115 116 144 312 326
b 3 0 14 28 41 144 310 312
b 4 0 41 310 312
b 5 0
b 6 0 41 310
b 7 0 41 310
b 8 0 310
b 9 0 310
b 10 0 14 28 41 144 151 310 312
b 11 0 14 28 41 115 116 144 226 312 326
b 12 0 14 28 41 115 116 144 149 226 312 326
b 13 0 14 41 115 116 149 226 312 326
b 14 0 41 312
b 15 0 115 116 149 226 312 326
b 16 0 116 149 312 326
b 17 0 115 116 149 226 312 326
b 18 0 41 115 116 144 312 326
b 19 0
b 20 0 41 115 116 144 312 326
b 21 0 41 115 116 144 312
b 22 0 41 115 144 312
b 23 0 41 115 312
b 24 0 41 115 312
b 25 0
b 26 0
b 27 0
b 28 0
b 29 0
b 30 0
b 31 0
b 32 0
b 33 0
b 34 0
b 35 0
b 36 0
b 37 0
b 38 0
b 39 0
b 40 0
b 41 0
b 42 0
b 43 0
b 44 0
b 45 0
b 46 0
b 47 0
b 48 0
b 49 0
b 50 0
b 51 0
b 52 0
b 53 0
b 54 0 41 115 312
b 55 0 115
b 56 0
b 57 0
b 58 0
b 59 0
b 60 0
b 61 0 115 312
b 62 0 115 312
b 63 0 41 312
b 64 0 41 312
b 65 0 312
b 66 0 41
b 67 0 41
b 68 0 41
b 69 0
b 70 0
b 71 0
b 72 0
b 73 0
b 74 0
b 75 0
b 76 0
b 77 0
b 78 0
b 79 0
b 80 0
b 81 0
b 82 0
b 83 0
b 84 0
b 85 0
b 86 0
b 87 0
b 88 0
b 89 0
b 90 0
b 91 0
b 92 0
b 93 0
b 94 0
b 95 0
b 96 0
b 97 0
b 98 0
b 99 0
b 100 0
b 101 0
b 102 0
b 103 0
b 104 0
b 105 0
b 106 0
b 107 0
b 108 0
b 109 0
b 110 0
b 111 0
b 112 0
b 113 0
b 114 0
b 115 0
b 116 0
b 117 0
b 118 0
b 119 0
b 120 0
b 121 0
b 122 0
b 123 0
b 124 0
b 125 0
b 126 0
b 127 0
b 128 0
b 129 0
b 130 0
b 131 0
b 132 0
b 133 0
b 134 0
b 135 0
b 136 0
b 137 0
b 138 0
b 139 0
b 140 0
b 141 0
b 142 0
b 143 0
b 144 0
b 145 0
b 146 0
b 147 0
b 148 0
b 149 0
b 150 0
b 151 0
b 152 0
b 153 0
b 154 0
b 155 0
b 156 0
b 157 0
b 158 0
b 159 0
b 160 0
b 161 0
b 162 0
b 163 0
b 164 0
b 165 0
b 166 0
b 167 0
b 168 0
b 169 0
b 170 0
b 171 0
b 172 0
b 173 0
b 174 0
b 175 0
b 176 0
b 177 0
b 178 0
b 179 0
b 180 0
b 181 0
b 182 0
b 183 0
b 184 0
b 185 0
b 186 0
b 187 0
b 188 0
b 189 0
b 190 0
b 191 0
b 192 0
b 193 0
b 194 0
b 195 0
b 196 0
b 197 0
b 198 0
b 199 0
b 200 0
b 201 0
b 202 0
b 203 0
b 204 0
b 205 0
b 206 0
b 207 0
b 208 0
b 209 0
b 210 0
b 211 0
b 212 0
b 213 0
b 214 0
b 215 0
b 216 0
b 217 0
b 218 0
b 219 0
b 220 0
b 221 0
b 222 0
b 223 0
b 224 0
b 225 0
b 226 0
b 227 0
b 228 0
b 229 0
b 230 0
b 231 0
b 232 0
b 233 0
b 234 0
b 235 0
b 236 0
b 237 0
b 238 0
b 239 0
b 240 0
b 241 0
b 242 0
b 243 0
b 244 0
b 245 0
b 246 0
b 247 0
b 248 0
b 249 0
b 250 0
b 251 0
b 252 0
b 253 0
b 254 0
b 255 0
b 256 0
b 257 0
b 258 0
b 259 0
b 260 0
b 261 0
b 262 0
b 263 0
b 264 0
b 265 0
b 266 0
b 267 0
b 268 0
b 269 0
b 270 0
b 271 0
b 272 0
b 273 0
b 274 0
b 275 0
b 276 0
b 277 0
b 278 0
b 279 0
b 280 0
b 281 0
b 282 0
b 283 0
b 284 0
b 285 0
b 286 0
b 287 0
b 288 0
b 289 0
b 290 0
b 291 0
b 292 0
b 293 0
b 294 0
b 295 0
b 296 0
b 297 0
b 298 0
b 299 0
b 300 0
b 301 0
b 302 0
b 303 0
b 304 0
b 305 0
b 306 0
b 307 0
b 308 0
b 309 0
b 310 0
b 311 0
b 312 0
b 313 0
b 314 0
b 315 0
b 316 0
b 317 0
b 318 0
b 319 0
b 320 0
b 321 0
b 322 0
b 323 0
b 324 0
b 325 0
b 326 0
b 327 0
b 328 0
b 329 0
b 330 0
b 331 0
b 332 0
b 333 0
b 334 0
b 335 0
b 336 0
b 337 0
b 338 0
b 339 0
b 340 0
b 341 0
b 342 0
b 343 0
b 344 0
b 345 0
b 346 0
e 139 138
e 139 140
e 200 194
e 200 201
e 201 202
e 202 203
e 203 218
e 203 204
e 315 314
e 315 316
e 310 309
e 339 317
e 339 340
e 119 118
e 119 121
e 119 120
e 337 317
e 337 338
e 113 109
e 93 90
e 93 95
e 93 94
e 336 334
e 133 131
e 133 134
e 218 219
e 180 179
e 180 181
e 91 90
e 91 92
e 158 146
e 158 159
e 152 146
e 152 157
e 152 156
e 152 155
e 152 153
e 219 220
e 220 221
e 221 222
e 222 223
e 223 225
e 223 224
e 185 184
e 185 187
e 185 186
e 149 146
e 149 151
e 149 150
e 225 226
e 300 299
e 300 301
e 111 109
e 111 112
e 142 141
e 104 98
e 104 105
e 204 206
e 204 205
e 195 194
e 195 198
e 195 197
e 195 196
e 144 143
e 144 145
e 301 307
e 301 302
e 103 98
e 181 182
e 115 114
e 115 116
e 75 76
e 75 67
e 67 66
e 67 68
e 66 64
e 64 63
e 64 65
e 63 54
e 54 23
e 54 61
e 54 55
e 23 22
e 23 24
e 22 21
e 21 20
e 20 18
e 18 0
e 18 19
e 0 2
e 0 1
e 2 11
e 2 3
e 11 12
e 12 13
e 100 98
e 100 101
e 175 174
e 175 176
e 99 98
e 161 160
e 127 123
e 127 128
e 13 15
e 13 14
e 95 97
e 95 96
e 342 317
e 342 343
e 132 131
e 206 207
e 207 208
e 208 209
e 209 210
e 210 211
e 211 212
e 212 213
e 213 215
e 213 214
e 147 146
e 147 148
e 110 109
e 134 135
e 198 199
e 15 17
e 15 16
e 215 216
e 216 217
e 307 308
e 24 38
e 24 30
e 24 29
e 24 26
e 24 25
e 126 123
e 3 10
e 3 4
e 128 129
e 302 304
e 302 303
e 288 287
e 288 289
e 289 290
e 290 292
e 290 291
e 292 293
e 293 294
e 294 295
e 295 296
e 296 297
e 343 344
e 129 130
e 176 177
e 125 123
e 190 189
e 190 191
e 344 345
e 101 102
e 124 123
e 38 39
e 39 40
e 40 41
e 41 42
e 42 43
e 43 45
e 43 44
e 45 53
e 45 49
e 45 48
e 45 47
e 45 46
e 4 6
e 4 5
e 6 7
e 7 8
e 49 50
e 304 305
e 305 306
e 135 136
e 136 137
e 50 51
e 51 52
e 8 9
e 177 178
e 171 170
e 308 309
e 68 73
e 68 70
e 68 69
e 81 76
e 81 82
e 82 84
e 82 83
e 84 85
e 85 86
e 86 88
e 86 87
e 88 89
e 30 31
e 31 32
e 32 34
e 32 33
e 34 35
e 35 36
e 36 37
e 341 317
e 233 229
e 105 106
e 61 62
e 345 346
e 166 165
e 153 154
e 317 314
e 317 334
e 317 332
e 317 331
e 317 330
e 317 329
e 317 328
e 317 327
e 317 326
e 317 325
e 317 324
e 317 323
e 317 322
e 317 321
e 317 320
e 317 319
e 317 318
e 314 313
e 313 312
e 312 311
e 311 298
e 298 287
e 298 299
e 287 286
e 286 285
e 285 284
e 284 283
e 283 282
e 282 281
e 281 280
e 280 279
e 279 278
e 278 276
e 276 275
e 276 277
e 275 274
e 274 273
e 273 272
e 272 271
e 271 270
e 270 269
e 269 267
e 267 266
e 267 268
e 266 265
e 265 264
e 264 263
e 263 262
e 262 261
e 261 260
e 260 259
e 259 258
e 258 257
e 257 256
e 256 255
e 255 254
e 254 253
e 253 252
e 252 251
e 251 250
e 250 249
e 249 247
e 236 235
e 247 246
e 247 248
e 70 71
e 71 72
e 26 27
e 27 28
e 246 245
e 78 76
e 78 79
e 79 80
e 229 234
e 229 228
e 229 232
e 229 230
e 74 73
e 228 227
e 170 172
e 170 169
e 169 168
e 168 167
e 167 165
e 165 164
e 164 163
e 163 162
e 162 160
e 160 76
e 76 107
e 76 90
e 76 77
e 107 108
e 108 114
e 108 109
e 114 117
e 117 118
e 118 122
e 122 138
e 122 123
e 245 244
e 244 243
e 243 242
e 242 241
e 241 239
e 239 238
e 239 240
e 238 237
e 230 231
e 237 235
e 235 234
e 138 141
e 55 58
e 55 57
e 55 56
e 58 60
e 58 59
e 334 335
e 193 192
e 227 172
e 172 173
e 332 333
e 173 174
e 141 146
e 141 143
e 174 179
e 179 183
e 123 131
e 90 98
e 183 184
e 184 188
e 188 189
e 189 192
e 192 194
-----
