c 0:LEAF, 1:INTRODUCE, 2:FORGET, 3:JOIN
b_type 0 2
b_type 1 2
b_type 2 2
b_type 3 2
b_type 4 2
b_type 5 2
b_type 6 2
b_type 7 2
b_type 8 2
b_type 9 2
b_type 10 2
b_type 11 2
b_type 12 2
b_type 13 2
b_type 14 2
b_type 15 2
b_type 16 3
b_type 17 1
b_type 18 3
b_type 19 1
b_type 20 2
b_type 21 2
b_type 22 3
b_type 23 2
b_type 24 1
b_type 25 1
b_type 26 1
b_type 27 1
b_type 28 1
b_type 29 1
b_type 30 1
b_type 31 1
b_type 32 1
b_type 33 1
b_type 34 1
b_type 35 1
b_type 36 1
b_type 37 1
b_type 38 1
b_type 39 1
b_type 40 1
b_type 41 1
b_type 42 0
b_type 43 3
b_type 44 3
b_type 45 3
b_type 46 1
b_type 47 1
b_type 48 1
b_type 49 1
b_type 50 1
b_type 51 1
b_type 52 1
b_type 53 1
b_type 54 1
b_type 55 1
b_type 56 1
b_type 57 1
b_type 58 1
b_type 59 1
b_type 60 1
b_type 61 1
b_type 62 1
b_type 63 1
b_type 64 1
b_type 65 1
b_type 66 0
b_type 67 1
b_type 68 1
b_type 69 1
b_type 70 1
b_type 71 1
b_type 72 1
b_type 73 1
b_type 74 1
b_type 75 1
b_type 76 1
b_type 77 1
b_type 78 1
b_type 79 1
b_type 80 1
b_type 81 1
b_type 82 1
b_type 83 1
b_type 84 1
b_type 85 0
b_type 86 1
b_type 87 2
b_type 88 3
b_type 89 3
b_type 90 1
b_type 91 1
b_type 92 3
b_type 93 1
b_type 94 3
b_type 95 1
b_type 96 1
b_type 97 1
b_type 98 1
b_type 99 1
b_type 100 1
b_type 101 1
b_type 102 1
b_type 103 3
b_type 104 1
b_type 105 1
b_type 106 1
b_type 107 1
b_type 108 1
b_type 109 1
b_type 110 3
b_type 111 1
b_type 112 3
b_type 113 1
b_type 114 3
b_type 115 1
b_type 116 1
b_type 117 1
b_type 118 1
b_type 119 1
b_type 120 3
b_type 121 3
b_type 122 1
b_type 123 1
b_type 124 0
b_type 125 1
b_type 126 1
b_type 127 1
b_type 128 0
b_type 129 1
b_type 130 0
b_type 131 3
b_type 132 1
b_type 133 1
b_type 134 1
b_type 135 3
b_type 136 1
b_type 137 1
b_type 138 1
b_type 139 1
b_type 140 0
b_type 141 3
b_type 142 1
b_type 143 1
b_type 144 1
b_type 145 0
b_type 146 1
b_type 147 0
b_type 148 1
b_type 149 1
b_type 150 1
b_type 151 3
b_type 152 1
b_type 153 1
b_type 154 0
b_type 155 0
b_type 156 1
b_type 157 1
b_type 158 1
b_type 159 1
b_type 160 1
b_type 161 0
b_type 162 1
b_type 163 1
b_type 164 1
b_type 165 1
b_type 166 1
b_type 167 0
b_type 168 1
b_type 169 1
b_type 170 1
b_type 171 1
b_type 172 1
b_type 173 1
b_type 174 3
b_type 175 1
b_type 176 1
b_type 177 1
b_type 178 1
b_type 179 1
b_type 180 0
b_type 181 1
b_type 182 1
b_type 183 1
b_type 184 0
b_type 185 1
b_type 186 1
b_type 187 1
b_type 188 1
b_type 189 1
b_type 190 1
b_type 191 2
b_type 192 1
b_type 193 1
b_type 194 2
b_type 195 1
b_type 196 1
b_type 197 1
b_type 198 1
b_type 199 1
b_type 200 1
b_type 201 1
b_type 202 1
b_type 203 1
b_type 204 1
b_type 205 1
b_type 206 0
b_type 207 1
b_type 208 1
b_type 209 1
b_type 210 1
b_type 211 1
b_type 212 1
b_type 213 1
b_type 214 1
b_type 215 1
b_type 216 1
b_type 217 1
b_type 218 1
b_type 219 1
b_type 220 1
b_type 221 1
b_type 222 1
b_type 223 1
b_type 224 0
b_type 225 1
b_type 226 2
b_type 227 2
b_type 228 3
b_type 229 1
b_type 230 2
b_type 231 3
b_type 232 1
b_type 233 3
b_type 234 3
b_type 235 3
b_type 236 3
b_type 237 1
b_type 238 1
b_type 239 1
b_type 240 1
b_type 241 1
b_type 242 1
b_type 243 1
b_type 244 1
b_type 245 1
b_type 246 1
b_type 247 1
b_type 248 1
b_type 249 1
b_type 250 1
b_type 251 1
b_type 252 1
b_type 253 1
b_type 254 1
b_type 255 1
b_type 256 1
b_type 257 1
b_type 258 1
b_type 259 1
b_type 260 0
b_type 261 1
b_type 262 1
b_type 263 1
b_type 264 1
b_type 265 3
b_type 266 3
b_type 267 1
b_type 268 1
b_type 269 1
b_type 270 1
b_type 271 1
b_type 272 1
b_type 273 1
b_type 274 3
b_type 275 3
b_type 276 3
b_type 277 1
b_type 278 1
b_type 279 1
b_type 280 1
b_type 281 1
b_type 282 1
b_type 283 1
b_type 284 1
b_type 285 1
b_type 286 1
b_type 287 1
b_type 288 1
b_type 289 1
b_type 290 1
b_type 291 0
b_type 292 1
b_type 293 1
b_type 294 1
b_type 295 1
b_type 296 1
b_type 297 1
b_type 298 1
b_type 299 1
b_type 300 1
b_type 301 1
b_type 302 1
b_type 303 1
b_type 304 0
b_type 305 1
b_type 306 1
b_type 307 1
b_type 308 1
b_type 309 1
b_type 310 1
b_type 311 1
b_type 312 1
b_type 313 1
b_type 314 1
b_type 315 1
b_type 316 1
b_type 317 1
b_type 318 1
b_type 319 0
b_type 320 1
b_type 321 1
b_type 322 1
b_type 323 1
b_type 324 1
b_type 325 1
b_type 326 1
b_type 327 1
b_type 328 1
b_type 329 1
b_type 330 1
b_type 331 1
b_type 332 0
b_type 333 1
b_type 334 1
b_type 335 1
b_type 336 1
b_type 337 1
b_type 338 1
b_type 339 1
b_type 340 1
b_type 341 1
b_type 342 1
b_type 343 1
b_type 344 1
b_type 345 1
b_type 346 1
b_type 347 1
b_type 348 1
b_type 349 1
b_type 350 1
b_type 351 1
b_type 352 1
b_type 353 1
b_type 354 0
b_type 355 1
b_type 356 1
b_type 357 1
b_type 358 1
b_type 359 1
b_type 360 1
b_type 361 1
b_type 362 1
b_type 363 1
b_type 364 3
b_type 365 1
b_type 366 1
b_type 367 1
b_type 368 1
b_type 369 1
b_type 370 1
b_type 371 2
b_type 372 1
b_type 373 1
b_type 374 1
b_type 375 1
b_type 376 1
b_type 377 1
b_type 378 0
b_type 379 1
b_type 380 1
b_type 381 1
b_type 382 1
b_type 383 1
b_type 384 1
b_type 385 3
b_type 386 1
b_type 387 1
b_type 388 1
b_type 389 1
b_type 390 0
b_type 391 1
b_type 392 1
b_type 393 0
b_type 394 1
b_type 395 1
b_type 396 1
b_type 397 1
b_type 398 1
b_type 399 1
b_type 400 1
b_type 401 1
b_type 402 1
b_type 403 1
b_type 404 1
b_type 405 1
b_type 406 1
b_type 407 1
b_type 408 1
b_type 409 1
b_type 410 1
b_type 411 1
b_type 412 1
b_type 413 1
b_type 414 1
b_type 415 1
b_type 416 0
b_type 417 3
b_type 418 2
b_type 419 3
b_type 420 3
b_type 421 1
b_type 422 1
b_type 423 1
b_type 424 1
b_type 425 1
b_type 426 1
b_type 427 1
b_type 428 3
b_type 429 3
b_type 430 1
b_type 431 1
b_type 432 1
b_type 433 1
b_type 434 1
b_type 435 1
b_type 436 1
b_type 437 1
b_type 438 1
b_type 439 1
b_type 440 1
b_type 441 1
b_type 442 1
b_type 443 1
b_type 444 1
b_type 445 1
b_type 446 1
b_type 447 0
b_type 448 1
b_type 449 1
b_type 450 1
b_type 451 1
b_type 452 1
b_type 453 1
b_type 454 1
b_type 455 1
b_type 456 1
b_type 457 1
b_type 458 1
b_type 459 1
b_type 460 1
b_type 461 1
b_type 462 1
b_type 463 1
b_type 464 1
b_type 465 1
b_type 466 0
b_type 467 1
b_type 468 1
b_type 469 1
b_type 470 1
b_type 471 1
b_type 472 1
b_type 473 1
b_type 474 1
b_type 475 1
b_type 476 1
b_type 477 1
b_type 478 1
b_type 479 1
b_type 480 1
b_type 481 1
b_type 482 1
b_type 483 0
b_type 484 1
b_type 485 2
b_type 486 3
b_type 487 1
b_type 488 1
b_type 489 3
b_type 490 1
b_type 491 1
b_type 492 1
b_type 493 1
b_type 494 1
b_type 495 1
b_type 496 3
b_type 497 3
b_type 498 3
b_type 499 1
b_type 500 1
b_type 501 1
b_type 502 1
b_type 503 1
b_type 504 1
b_type 505 1
b_type 506 1
b_type 507 1
b_type 508 3
b_type 509 1
b_type 510 1
b_type 511 1
b_type 512 1
b_type 513 1
b_type 514 1
b_type 515 1
b_type 516 1
b_type 517 1
b_type 518 1
b_type 519 1
b_type 520 1
b_type 521 0
b_type 522 1
b_type 523 1
b_type 524 1
b_type 525 1
b_type 526 1
b_type 527 1
b_type 528 1
b_type 529 1
b_type 530 1
b_type 531 1
b_type 532 0
b_type 533 1
b_type 534 1
b_type 535 1
b_type 536 1
b_type 537 1
b_type 538 1
b_type 539 1
b_type 540 1
b_type 541 1
b_type 542 1
b_type 543 1
b_type 544 1
b_type 545 1
b_type 546 1
b_type 547 1
b_type 548 1
b_type 549 1
b_type 550 1
b_type 551 0
b_type 552 3
b_type 553 1
b_type 554 1
b_type 555 1
b_type 556 1
b_type 557 1
b_type 558 1
b_type 559 1
b_type 560 1
b_type 561 1
b_type 562 1
b_type 563 1
b_type 564 1
b_type 565 1
b_type 566 1
b_type 567 1
b_type 568 1
b_type 569 1
b_type 570 1
b_type 571 1
b_type 572 0
b_type 573 1
b_type 574 1
b_type 575 1
b_type 576 1
b_type 577 1
b_type 578 1
b_type 579 1
b_type 580 1
b_type 581 1
b_type 582 1
b_type 583 1
b_type 584 1
b_type 585 1
b_type 586 1
b_type 587 1
b_type 588 1
b_type 589 1
b_type 590 1
b_type 591 1
b_type 592 1
b_type 593 0
b_type 594 1
b_type 595 1
b_type 596 1
b_type 597 1
b_type 598 1
b_type 599 1
b_type 600 1
b_type 601 1
b_type 602 1
b_type 603 1
b_type 604 1
b_type 605 1
b_type 606 1
b_type 607 1
b_type 608 1
b_type 609 1
b_type 610 1
b_type 611 1
b_type 612 0
b_type 613 3
b_type 614 1
b_type 615 1
b_type 616 3
b_type 617 3
b_type 618 1
b_type 619 1
b_type 620 1
b_type 621 1
b_type 622 1
b_type 623 1
b_type 624 1
b_type 625 1
b_type 626 1
b_type 627 1
b_type 628 1
b_type 629 1
b_type 630 1
b_type 631 1
b_type 632 1
b_type 633 1
b_type 634 1
b_type 635 1
b_type 636 1
b_type 637 1
b_type 638 1
b_type 639 1
b_type 640 0
b_type 641 1
b_type 642 1
b_type 643 1
b_type 644 1
b_type 645 1
b_type 646 3
b_type 647 3
b_type 648 3
b_type 649 1
b_type 650 1
b_type 651 1
b_type 652 1
b_type 653 1
b_type 654 1
b_type 655 1
b_type 656 1
b_type 657 1
b_type 658 1
b_type 659 1
b_type 660 1
b_type 661 1
b_type 662 1
b_type 663 1
b_type 664 1
b_type 665 1
b_type 666 1
b_type 667 1
b_type 668 0
b_type 669 1
b_type 670 1
b_type 671 1
b_type 672 1
b_type 673 1
b_type 674 1
b_type 675 1
b_type 676 1
b_type 677 3
b_type 678 1
b_type 679 1
b_type 680 1
b_type 681 1
b_type 682 1
b_type 683 1
b_type 684 1
b_type 685 1
b_type 686 1
b_type 687 1
b_type 688 0
b_type 689 1
b_type 690 1
b_type 691 1
b_type 692 1
b_type 693 1
b_type 694 1
b_type 695 1
b_type 696 1
b_type 697 0
b_type 698 1
b_type 699 1
b_type 700 1
b_type 701 1
b_type 702 1
b_type 703 1
b_type 704 1
b_type 705 1
b_type 706 1
b_type 707 1
b_type 708 1
b_type 709 1
b_type 710 1
b_type 711 3
b_type 712 3
b_type 713 3
b_type 714 1
b_type 715 1
b_type 716 1
b_type 717 1
b_type 718 1
b_type 719 1
b_type 720 1
b_type 721 0
b_type 722 1
b_type 723 1
b_type 724 1
b_type 725 1
b_type 726 1
b_type 727 0
b_type 728 1
b_type 729 1
b_type 730 1
b_type 731 1
b_type 732 1
b_type 733 1
b_type 734 1
b_type 735 0
b_type 736 1
b_type 737 1
b_type 738 1
b_type 739 1
b_type 740 1
b_type 741 0
b_type 742 1
b_type 743 1
b_type 744 1
b_type 745 1
b_type 746 1
b_type 747 1
b_type 748 1
b_type 749 1
b_type 750 1
b_type 751 1
b_type 752 1
b_type 753 1
b_type 754 1
b_type 755 1
b_type 756 1
b_type 757 1
b_type 758 1
b_type 759 0
b_type 760 1
b_type 761 1
b_type 762 1
b_type 763 1
b_type 764 1
b_type 765 1
b_type 766 1
b_type 767 1
b_type 768 1
b_type 769 1
b_type 770 1
b_type 771 1
b_type 772 1
b_type 773 1
b_type 774 1
b_type 775 1
b_type 776 1
b_type 777 1
b_type 778 1
b_type 779 1
b_type 780 1
b_type 781 0
b_type 782 1
b_type 783 1
b_type 784 1
b_type 785 1
b_type 786 1
b_type 787 1
b_type 788 1
b_type 789 1
b_type 790 1
b_type 791 1
b_type 792 1
b_type 793 1
b_type 794 1
b_type 795 1
b_type 796 1
b_type 797 1
b_type 798 1
b_type 799 1
b_type 800 1
b_type 801 1
b_type 802 1
b_type 803 1
b_type 804 0
b_type 805 1
b_type 806 1
b_type 807 1
b_type 808 1
b_type 809 1
b_type 810 1
b_type 811 1
b_type 812 1
b_type 813 2
b_type 814 3
b_type 815 1
b_type 816 1
b_type 817 1
b_type 818 1
b_type 819 1
b_type 820 1
b_type 821 1
b_type 822 1
b_type 823 1
b_type 824 1
b_type 825 1
b_type 826 1
b_type 827 1
b_type 828 1
b_type 829 2
b_type 830 1
b_type 831 1
b_type 832 1
b_type 833 1
b_type 834 1
b_type 835 0
b_type 836 1
b_type 837 1
b_type 838 1
b_type 839 2
b_type 840 1
b_type 841 1
b_type 842 1
b_type 843 1
b_type 844 1
b_type 845 1
b_type 846 1
b_type 847 1
b_type 848 1
b_type 849 1
b_type 850 1
b_type 851 1
b_type 852 1
b_type 853 1
b_type 854 0
b_type 855 1
b_type 856 1
b_type 857 1
b_type 858 1
b_type 859 1
b_type 860 1
b_type 861 1
b_type 862 1
b_type 863 1
b_type 864 1
b_type 865 1
b_type 866 1
b_type 867 1
b_type 868 1
b_type 869 1
b_type 870 1
b_type 871 2
b_type 872 1
b_type 873 1
b_type 874 1
b_type 875 1
b_type 876 1
b_type 877 1
b_type 878 1
b_type 879 1
b_type 880 0
b_type 881 1
b_type 882 1
b_type 883 1
b_type 884 1
b_type 885 1
b_type 886 1
b_type 887 1
b_type 888 1
b_type 889 1
b_type 890 1
b_type 891 1
b_type 892 1
b_type 893 1
b_type 894 1
b_type 895 1
b_type 896 1
b_type 897 1
b_type 898 1
b_type 899 1
b_type 900 1
b_type 901 1
b_type 902 1
b_type 903 1
b_type 904 1
b_type 905 3
b_type 906 3
b_type 907 0
b_type 908 0
b_type 909 0
b_type 910 1
b_type 911 1
b_type 912 1
b_type 913 1
b_type 914 1
b_type 915 1
b_type 916 1
b_type 917 1
b_type 918 1
b_type 919 1
b_type 920 1
b_type 921 1
b_type 922 1
b_type 923 1
b_type 924 1
b_type 925 1
b_type 926 1
b_type 927 1
b_type 928 1
b_type 929 1
b_type 930 1
b_type 931 3
b_type 932 3
b_type 933 1
b_type 934 3
b_type 935 3
b_type 936 0
b_type 937 0
b_type 938 0
b_type 939 3
b_type 940 1
b_type 941 0
b_type 942 3
b_type 943 1
b_type 944 3
b_type 945 3
b_type 946 0
b_type 947 3
b_type 948 0
b_type 949 0
b_type 950 0
b_type 951 3
b_type 952 1
b_type 953 0
b_type 954 1
b_type 955 3
b_type 956 3
b_type 957 3
b_type 958 1
b_type 959 1
b_type 960 0
b_type 961 0
b_type 962 3
b_type 963 1
b_type 964 0
b_type 965 1
b_type 966 1
b_type 967 3
b_type 968 0
b_type 969 0
b_type 970 3
b_type 971 3
b_type 972 0
b_type 973 3
b_type 974 3
b_type 975 0
b_type 976 0
b_type 977 3
b_type 978 0
b_type 979 0
b_type 980 0
b_type 981 3
b_type 982 3
b_type 983 0
b_type 984 3
b_type 985 0
b_type 986 3
b_type 987 3
b_type 988 0
b_type 989 3
b_type 990 0
b_type 991 0
b_type 992 3
b_type 993 0
b_type 994 0
b_type 995 0
b_type 996 1
b_type 997 1
b_type 998 1
b_type 999 1
b_type 1000 1
b_type 1001 1
b_type 1002 1
b_type 1003 1
b_type 1004 1
b_type 1005 1
b_type 1006 1
b_type 1007 1
b_type 1008 1
b_type 1009 1
b_type 1010 1
b_type 1011 1
b_type 1012 1
b_type 1013 1
b_type 1014 1
b_type 1015 1
b_type 1016 1
b_type 1017 1
b_type 1018 0
b_type 1019 1
b_type 1020 1
b_type 1021 1
b_type 1022 1
b_type 1023 1
b_type 1024 1
b_type 1025 1
b_type 1026 1
b_type 1027 1
b_type 1028 1
b_type 1029 1
b_type 1030 1
b_type 1031 1
b_type 1032 1
b_type 1033 1
b_type 1034 1
b_type 1035 1
b_type 1036 1
b_type 1037 1
b_type 1038 1
b_type 1039 1
b_type 1040 0
b_type 1041 1
b_type 1042 1
b_type 1043 1
b_type 1044 1
b_type 1045 1
b_type 1046 1
b_type 1047 1
b_type 1048 1
b_type 1049 1
b_type 1050 1
b_type 1051 1
b_type 1052 1
b_type 1053 1
b_type 1054 1
b_type 1055 1
b_type 1056 1
b_type 1057 1
b_type 1058 1
b_type 1059 1
b_type 1060 0
b_type 1061 1
b_type 1062 1
b_type 1063 1
b_type 1064 1
b_type 1065 1
b_type 1066 1
b_type 1067 1
b_type 1068 1
b_type 1069 1
b_type 1070 1
b_type 1071 1
b_type 1072 1
b_type 1073 1
b_type 1074 1
b_type 1075 1
b_type 1076 1
b_type 1077 1
b_type 1078 1
b_type 1079 0
b_type 1080 1
b_type 1081 1
b_type 1082 1
b_type 1083 1
b_type 1084 1
b_type 1085 1
b_type 1086 1
b_type 1087 1
b_type 1088 1
b_type 1089 1
b_type 1090 1
b_type 1091 1
b_type 1092 1
b_type 1093 1
b_type 1094 1
b_type 1095 0
b_type 1096 1
b_type 1097 1
b_type 1098 1
b_type 1099 3
b_type 1100 1
b_type 1101 1
b_type 1102 1
b_type 1103 1
b_type 1104 1
b_type 1105 1
b_type 1106 1
b_type 1107 1
b_type 1108 1
b_type 1109 1
b_type 1110 1
b_type 1111 1
b_type 1112 1
b_type 1113 0
b_type 1114 1
b_type 1115 1
b_type 1116 1
b_type 1117 1
b_type 1118 3
b_type 1119 1
b_type 1120 1
b_type 1121 1
b_type 1122 1
b_type 1123 1
b_type 1124 1
b_type 1125 1
b_type 1126 1
b_type 1127 0
b_type 1128 1
b_type 1129 1
b_type 1130 1
b_type 1131 3
b_type 1132 1
b_type 1133 1
b_type 1134 1
b_type 1135 1
b_type 1136 0
b_type 1137 1
b_type 1138 3
b_type 1139 1
b_type 1140 3
b_type 1141 1
b_type 1142 3
b_type 1143 1
b_type 1144 3
b_type 1145 1
b_type 1146 1
b_type 1147 0
b_type 1148 0
b_type 1149 0
b_type 1150 3
b_type 1151 0
b_type 1152 3
b_type 1153 3
b_type 1154 3
b_type 1155 3
b_type 1156 3
b_type 1157 3
b_type 1158 3
b_type 1159 0
b_type 1160 0
b_type 1161 3
b_type 1162 0
b_type 1163 0
b_type 1164 0
b_type 1165 3
b_type 1166 3
b_type 1167 0
b_type 1168 0
b_type 1169 3
b_type 1170 0
b_type 1171 0
b_type 1172 0
b_type 1173 3
b_type 1174 3
b_type 1175 3
b_type 1176 3
b_type 1177 0
b_type 1178 0
b_type 1179 3
b_type 1180 0
b_type 1181 0
b_type 1182 0
b_type 1183 3
b_type 1184 3
b_type 1185 0
b_type 1186 3
b_type 1187 0
b_type 1188 0
b_type 1189 3
b_type 1190 0
b_type 1191 0
b_type 1192 0
b_type 1193 3
b_type 1194 0
b_type 1195 0
-----
